[{"id_user":1,"first_name":"Stearne","last_name":"Danielli","email":"sdanielli0@utexas.edu","password":"FSIaObJ5"},
{"id_user":2,"first_name":"Dina","last_name":"Joyson","email":"djoyson1@123-reg.co.uk","password":"JupnBZ"},
{"id_user":3,"first_name":"Jervis","last_name":"Bauldrey","email":"jbauldrey2@wsj.com","password":"10aiRsVKi"},
{"id_user":4,"first_name":"Perceval","last_name":"Tomasi","email":"ptomasi3@nymag.com","password":"BtyEobC3T2V"},
{"id_user":5,"first_name":"Giffy","last_name":"Gronav","email":"ggronav4@oaic.gov.au","password":"T0vqHL3x9e0"},
{"id_user":6,"first_name":"Ethelyn","last_name":"Wollers","email":"ewollers5@google.com.au","password":"fD0STU"},
{"id_user":7,"first_name":"Gaylord","last_name":"Shyram","email":"gshyram6@spiegel.de","password":"m0FL2WrP7nI"},
{"id_user":8,"first_name":"Melony","last_name":"Sydall","email":"msydall7@state.tx.us","password":"woPoKBUWL9"},
{"id_user":9,"first_name":"Kirby","last_name":"McFeat","email":"kmcfeat8@liveinternet.ru","password":"Ziez5Mp"},
{"id_user":10,"first_name":"Sharla","last_name":"McIlmorie","email":"smcilmorie9@cpanel.net","password":"0Du8XmsthZP"}]